{
  "className": "hci.ri.core.subject.model.dictionary.GenderType",
  "displayName": "Gender",
  "description": "An enumeration of gender types for demographics.",
  "readOnly": true,
  "fields": [
    {
      "name": "isActive",
      "type": "String",
      "protectionType": null,
      "displayName": "Is Active?",
      "description": "Whether the dictionary entry is active.",
      "displayOrder": 3,
      "filterDictionaryClass": "hci.ri.dictionary.model.provideddictionary.YesNoDictionary",
      "min": "1",
      "max": "1",
      "integer": null,
      "fraction": null,
      "id": false,
      "notNull": true,
      "filterable": true,
      "dictionaryDisplay": false,
      "dictionaryTooltip": false
    },
    {
      "name": "genderType",
      "type": "String",
      "protectionType": null,
      "displayName": "Gender",
      "description": "The name of this gender type.",
      "displayOrder": 1,
      "filterDictionaryClass": null,
      "min": "0",
      "max": "64",
      "integer": null,
      "fraction": null,
      "id": false,
      "notNull": true,
      "filterable": false,
      "dictionaryDisplay": true,
      "dictionaryTooltip": false
    },
    {
      "name": "idGenderType",
      "type": "Long",
      "protectionType": null,
      "displayName": null,
      "description": "ID for this gender type",
      "displayOrder": 0,
      "filterDictionaryClass": null,
      "min": null,
      "max": null,
      "integer": null,
      "fraction": null,
      "id": true,
      "notNull": false,
      "filterable": false,
      "dictionaryDisplay": false,
      "dictionaryTooltip": false
    },
    {
      "name": "description",
      "type": "String",
      "protectionType": null,
      "displayName": "Description",
      "description": "A description of the dictionary entry.",
      "displayOrder": 2,
      "filterDictionaryClass": null,
      "min": "0",
      "max": "256",
      "integer": null,
      "fraction": null,
      "id": false,
      "notNull": false,
      "filterable": false,
      "dictionaryDisplay": false,
      "dictionaryTooltip": false
    }
  ]
}
