[{
  "codeRaceType": "white",
  "idRaceType": 1,
  "description": null,
  "raceType": "White",
  "isActive": "Y"
}, {
  "codeRaceType": "nativeHawaiian",
  "idRaceType": 2,
  "description": null,
  "raceType": "Native Hawaiian or Other Pacific Islander",
  "isActive": "Y"
}, {
  "codeRaceType": "asian",
  "idRaceType": 3,
  "description": null,
  "raceType": "Asian",
  "isActive": "Y"
}, {
  "codeRaceType": "unknownNotCollected",
  "idRaceType": 4,
  "description": null,
  "raceType": "Unknown - not collected",
  "isActive": "Y"
}, {
  "codeRaceType": "unknownByPatient",
  "idRaceType": 5,
  "description": null,
  "raceType": "Unknown by patient",
  "isActive": "Y"
}, {
  "codeRaceType": "other",
  "idRaceType": 6,
  "description": null,
  "raceType": "Some Other Race",
  "isActive": "Y"
}, {
  "codeRaceType": "unknownRefused",
  "idRaceType": 7,
  "description": null,
  "raceType": "Unknown - participant refused",
  "isActive": "Y"
}, {
  "codeRaceType": "unknownNoInfo",
  "idRaceType": 8,
  "description": null,
  "raceType": "Unknown - no other information",
  "isActive": "Y"
}, {
  "codeRaceType": "americanIndian",
  "idRaceType": 9,
  "description": null,
  "raceType": "American Indian or Alaska Native",
  "isActive": "Y"
}, {
  "codeRaceType": "twoOrMore",
  "idRaceType": 10,
  "description": null,
  "raceType": "Two or more races",
  "isActive": "Y"
}, {
  "codeRaceType": "black",
  "idRaceType": 11,
  "description": null,
  "raceType": "Black or African American",
  "isActive": "Y"
}, {
  "codeRaceType": "hispanic",
  "idRaceType": 12,
  "description": null,
  "raceType": "Hispanic",
  "isActive": "Y"
}, {
  "codeRaceType": "polynesian",
  "idRaceType": 13,
  "description": null,
  "raceType": "Melanesian Polynesian",
  "isActive": "Y"
}
]
