<?xml version="1.0" encoding="utf-8"?>
<svg version="1.1" id="Layer_1" xmlns="http://www.w3.org/2000/svg" xmlns:xlink="http://www.w3.org/1999/xlink" x="0px" y="0px"
	 viewBox="0 0 512 512" style="enable-background:new 0 0 512 512;" xml:space="preserve">
<g>
	<path d="M145.9,267.1c0,16.7-14.4,30.6-30.8,30.6c-17.3,0-30.8-13.7-30.8-30.8c0-17.1,13.5-30.8,30.8-30.8
		C131.9,236.1,145.9,250,145.9,267.1z M395.4,236.1c-16.9,0-30.8,14-30.8,30.8c0,16.9,14,30.8,30.8,30.8c16.4,0,30.8-14,30.8-30.6
		C426.2,250,412.3,236.1,395.4,236.1z M512,143.5v225c0,20.6-16.9,37.5-37.5,37.5h-437C16.9,406,0,389.1,0,368.5v-225
		C0,122.9,16.9,106,37.5,106h437C495.1,106,512,122.9,512,143.5z M173.5,211.8h-31.1V226c-10.1-11.7-22.3-17.8-36.7-17.8
		c-30.6,0-53.6,25.7-53.6,58.5c0,33.3,23.2,58.7,54.2,58.7c14.6,0,26.5-5.8,36-17.8v14.4h31.1V211.8z M309.2,250.7
		c0-29.7-18.7-42.5-41-42.5c-14,0-25.4,5.9-34.4,17.3v-13.7h-31.1v110.3h31.1v-57.2c0-20.7,7.9-30.4,23.4-30.4
		c15.8,0,20.9,8.6,20.9,27v60.5h31.1V250.7z M453.9,156.4h-31.1V226c-10.1-11.7-22.3-17.8-36.7-17.8c-30.4,0-53.6,25.7-53.6,58.5
		c0,33.8,23.2,58.7,54.2,58.7c14.6,0,26.6-5.8,36-17.8v14.4h31.1V156.4z"/>
</g>
</svg>
