<svg version="1.1" id="Layer_1" xmlns="http://www.w3.org/2000/svg" xmlns:xlink="http://www.w3.org/1999/xlink" x="0px" y="0px"
	 viewBox="0 0 512 512" style="enable-background:new 0 0 512 512;" xml:space="preserve">
<path d="M512,4.72C282.96,124.32,157.24,329.27,157.24,329.27L0,287.69l219.59,219.59C219.59,507.28,274.63,217.98,512,4.72z"/>
</svg>
