<?xml version="1.0" encoding="utf-8"?>
<svg version="1.1" id="Layer_1" xmlns="http://www.w3.org/2000/svg" xmlns:xlink="http://www.w3.org/1999/xlink" x="0px" y="0px"
	 viewBox="0 0 512 512" style="enable-background:new 0 0 512 512;" xml:space="preserve">
<path d="M512,323.7c0,10.7-8.1,18.8-18.8,18.8h-36v36c0,10.7-8.1,18.8-18.8,18.8c-10.7,0-18.8-8.1-18.8-18.8v-36h-36
	c-10.7,0-18.8-8.1-18.8-18.8c0-10,8.8-18.8,18.8-18.8h36v-36c0-10,8.8-18.8,18.8-18.8s18.8,8.8,18.8,18.8v36h36
	C503.2,304.9,512,313.7,512,323.7z M315.1,324.5c0,59.1,41.6,108.5,97.1,120.5c-4.6,1.8-9.6,2.8-14.9,2.8H41.1
	C18.4,447.8,0,429.4,0,406.7V105.3c0-22.7,18.4-41.1,41.1-41.1h137l54.8,54.8h164.4c22.7,0,41.1,18.4,41.1,41.1v41.1
	C370.3,201.2,315.1,256.4,315.1,324.5z M294.1,298c-4-7.3-9.9-14.4-17.5-21.2l6.8-75.6c0-27.8-50.7-50.4-113.3-50.4
	S56.7,173.4,56.7,201.2l14,156.1c0,27.8,36.7,50.4,99.3,50.4s99.3-22.5,99.3-50.4l0.9-10.4c3.4-0.2,6.3-0.8,8.8-1.5
	c10.8-3.2,18.2-11,20.2-21.3C300.8,316.1,299.1,307.1,294.1,298z M170,169.7c-52.2,0-94.4,14.1-94.4,31.5
	c0,17.4,42.3,31.5,94.4,31.5c52.2,0,94.4-14.1,94.4-31.5C264.5,183.8,222.2,169.7,170,169.7z M279.6,320.2
	c0.9-4.8-1.4-10.6-5.4-16.3l-2,22.5c0.5-0.1,0.9-0.2,1.3-0.3C278.2,324.7,279.2,322.1,279.6,320.2z M239.1,319.2
	c-13.7-6.6-28.6-17.2-44-31.1c1-2.7,1.6-5.7,1.6-8.8c0-13.9-11.2-25.1-25.1-25.1c-13.9,0-25.1,11.2-25.1,25.1s11.2,25.1,25.1,25.1
	c3.3,0,6.5-0.7,9.5-1.9c17,15.5,33.5,27.1,49.2,34.8c15.4,7.5,27.5,9.8,36.5,9.8c1.2,0,2.4,0,3.5-0.1l1.8-20.5
	C267.5,327.4,257,327.9,239.1,319.2z"/>
</svg>
