<?xml version="1.0" encoding="utf-8"?>
<svg version="1.1" id="Layer_1" xmlns="http://www.w3.org/2000/svg" xmlns:xlink="http://www.w3.org/1999/xlink" x="0px" y="0px"
	 viewBox="0 0 512 512" style="enable-background:new 0 0 512 512;" xml:space="preserve">
<path d="M464,128H272l-64-64H48C21.5,64,0,85.5,0,112v288c0,26.5,21.5,48,48,48h416c26.5,0,48-21.5,48-48V176
	C512,149.5,490.5,128,464,128z M271.9,312.1c-9.4,0-18.5-1.8-27.1-5.2c-3-1.2-4.7-4.5-3.9-7.7s3.8-5.3,7-5c1.7,0.2,3.2,0.2,4.7,0.2
	c27.7,0,50.3-22.6,50.3-50.3s-22.6-50.3-50.3-50.3h-14.1l0,187.9c0,12.4,10.1,22.5,22.5,22.5c3.6,0,6.6,2.9,6.6,6.6
	s-2.9,6.6-6.6,6.6h-86.7c-3.6,0-6.6-2.9-6.6-6.6s2.9-6.6,6.6-6.6c12.4,0,22.5-10.1,22.5-22.5V203c0-12.4-10.1-22.5-22.5-22.5
	c-3.6,0-6.6-2.9-6.6-6.6s2.9-6.6,6.6-6.6h97.4c39.9,0,72.4,32.5,72.4,72.4S311.8,312.1,271.9,312.1z"/>
</svg>
