<?xml version="1.0" encoding="utf-8"?>
<svg version="1.1" id="Layer:_grip-lineslong-vertical"
	 xmlns="http://www.w3.org/2000/svg" xmlns:xlink="http://www.w3.org/1999/xlink" x="0px" y="0px" viewBox="0 0 512 512"
	 style="enable-background:new 0 0 512 512;" xml:space="preserve">
<path d="M512,276v8c0,2.2-1.8,4-4,4H4c-2.2,0-4-1.8-4-4v-8c0-2.2,1.8-4,4-4h504C510.2,272,512,273.8,512,276z M512,228v8
	c0,2.2-1.8,4-4,4H4c-2.2,0-4-1.8-4-4v-8c0-2.2,1.8-4,4-4h504C510.2,224,512,225.8,512,228z"/>
</svg>
