<svg version="1.1" id="Layer_1" xmlns="http://www.w3.org/2000/svg" xmlns:xlink="http://www.w3.org/1999/xlink" x="0px" y="0px"
	 viewBox="0 0 512 512" style="enable-background:new 0 0 512 512;" xml:space="preserve">
<path d="M133,62.9c0.6,0.3,1.4,0.6,2.3,0.8c0.9,0.2,1.8,0.3,2.9,0.3h235.7c1,0,2-0.1,2.9-0.3c0.9-0.2,1.6-0.4,2.3-0.8
	c0.6-0.3,1.1-0.7,1.4-1.1c0.3-0.4,0.5-0.9,0.4-1.4l-1.2-7.7c-0.1-0.5-0.4-0.9-0.8-1.4c-0.4-0.4-1-0.8-1.8-1.1
	c-0.7-0.3-1.6-0.6-2.5-0.8c-0.9-0.2-1.9-0.3-2.9-0.3h-91.1c0-1.6-0.8-3.1-2.1-4.5c-1.3-1.4-3.1-2.6-5.3-3.6c-2.2-1-4.9-1.9-7.8-2.4
	c-2.9-0.6-6.1-0.9-9.5-0.9c-3.4,0-6.5,0.3-9.5,0.9c-2.9,0.6-5.6,1.4-7.8,2.4c-2.2,1-4.1,2.3-5.3,3.6c-1.3,1.4-2,2.9-2.1,4.5h-91.1
	c-1,0-2,0.1-2.9,0.3c-0.9,0.2-1.7,0.4-2.5,0.8c-0.7,0.3-1.3,0.7-1.8,1.1c-0.4,0.4-0.7,0.9-0.8,1.4l-1.2,7.7c-0.1,0.5,0.1,1,0.4,1.4
	C131.8,62.2,132.3,62.5,133,62.9z M249.2,47.8c0.4-0.4,0.9-0.8,1.6-1.1c0.7-0.3,1.5-0.6,2.3-0.7c0.9-0.2,1.8-0.3,2.9-0.3
	c1,0,2,0.1,2.9,0.3c0.9,0.2,1.7,0.4,2.3,0.7c0.7,0.3,1.2,0.7,1.6,1.1c0.4,0.4,0.6,0.9,0.6,1.4c0,0.5-0.2,0.9-0.6,1.4
	c-0.4,0.4-0.9,0.8-1.6,1.1c-0.7,0.3-1.5,0.6-2.4,0.8c-0.9,0.2-1.9,0.3-2.9,0.3s-2-0.1-2.9-0.3c-0.9-0.2-1.7-0.4-2.4-0.8
	c-0.7-0.3-1.2-0.7-1.6-1.1c-0.4-0.4-0.6-0.9-0.6-1.4C248.6,48.6,248.8,48.2,249.2,47.8z M324.3,84.6c-0.3-0.2-0.6-0.5-0.9-0.7h48.5
	c-0.2,0.2-0.5,0.5-0.8,0.7c-0.3,0.2-0.5,0.5-0.8,0.7c-0.3,0.2-0.6,0.5-0.9,0.7c-0.3,0.2-0.7,0.5-1,0.7h-40.9
	c-0.4-0.3-0.8-0.5-1.2-0.7c-0.4-0.2-0.7-0.5-1.1-0.7C324.9,85.1,324.6,84.9,324.3,84.6z M329.5,111h41.9c0.4,0.3,0.8,0.5,1.3,0.8
	c0.4,0.3,0.8,0.5,1.2,0.8c0.4,0.3,0.7,0.5,1.1,0.8c0.3,0.3,0.7,0.5,1,0.8h-50.2c0.3-0.3,0.5-0.5,0.8-0.8c0.3-0.3,0.6-0.5,0.9-0.8
	c0.3-0.3,0.6-0.5,1-0.8C328.8,111.6,329.1,111.3,329.5,111z M511.5,317.6L454.6,76c-0.6-2.6-2.2-5-4.7-7.2c-2.4-2.2-5.6-4.1-9.4-5.8
	c-3.8-1.6-8.1-3-12.7-3.9c-4.7-0.9-9.7-1.4-14.8-1.4h-22.5l0.4,2.6c0.2,1.2-0.1,2.3-0.8,3.3c-0.7,1-1.9,1.9-3.3,2.7
	c-1.5,0.8-3.3,1.4-5.3,1.8c-2,0.4-4.3,0.7-6.8,0.7H137.4c-2.4,0-4.7-0.2-6.8-0.7c-2-0.4-3.8-1.1-5.3-1.8c-1.5-0.8-2.6-1.7-3.3-2.7
	c-0.7-1-1-2.1-0.8-3.3l0.4-2.6H99c-5.1,0-10.2,0.5-14.8,1.4c-4.7,0.9-9,2.2-12.8,3.9c-3.8,1.6-7,3.6-9.4,5.8
	C59.6,71,58,73.4,57.4,76L0.5,317.6c-1,4.3-0.6,8.3,1.1,12.1c1.7,3.8,4.5,7.2,8.4,10.1c3.9,2.9,8.8,5.3,14.5,6.9
	c5.7,1.7,12.1,2.6,19.1,2.6h4.9c0,0.1,0,0.1,0,0.2c0,0.1,0,0.2,0,0.4l14.5,117.9c0,0.1,0,0.2,0.1,0.3c0,0.1,0.1,0.2,0.2,0.3
	s0.1,0.2,0.2,0.3c0.1,0.1,0.2,0.2,0.3,0.2c0.1,0.1,0.2,0.1,0.3,0.2c0.1,0.1,0.2,0.1,0.4,0.1c0.1,0,0.3,0.1,0.4,0.1
	c0.1,0,0.3,0,0.4,0h42.3c0.1,0,0.3,0,0.4,0c0.1,0,0.3,0,0.4-0.1c0.1,0,0.2-0.1,0.3-0.1c0.1-0.1,0.2-0.1,0.3-0.2
	c0.1-0.1,0.2-0.2,0.2-0.2c0.1-0.1,0.1-0.2,0.2-0.3c0-0.1,0.1-0.2,0.1-0.3c0-0.1,0-0.2,0-0.3l-3.3-35.6h5.8l32.7,36.4
	c0.1,0.1,0.2,0.2,0.4,0.3c0.1,0.1,0.3,0.2,0.4,0.2s0.3,0.1,0.5,0.1c0.2,0,0.4,0.1,0.5,0.1h49.3c0.2,0,0.4,0,0.6-0.1
	c0.2,0,0.4-0.1,0.5-0.2c0.2-0.1,0.3-0.2,0.4-0.3c0.1-0.1,0.2-0.2,0.3-0.3c0.1-0.1,0.1-0.3,0.2-0.4s0-0.3,0-0.4
	c0-0.1-0.1-0.3-0.1-0.4c-0.1-0.1-0.2-0.3-0.3-0.4L158.2,427c2.3-0.8,4.4-1.7,6.4-2.7c2-1,3.8-2,5.5-3.2c1.7-1.1,3.3-2.4,4.7-3.6
	c1.4-1.3,2.7-2.7,3.8-4.1c1.2-1.6,2.3-3.2,3.2-4.9c0.9-1.7,1.6-3.5,2.2-5.4c0.6-1.9,1-3.8,1.2-5.8c0.2-2,0.3-4,0.2-6.2
	c-0.1-1.5-0.2-3-0.4-4.5c-0.2-1.5-0.6-2.9-1-4.4c-0.4-1.4-0.9-2.8-1.5-4.2c-0.6-1.4-1.2-2.7-2-4c-1.1-2-2.5-3.8-4-5.6
	c-1.5-1.8-3.3-3.5-5.2-5.1c-1.9-1.6-4.1-3.1-6.4-4.5c-2.3-1.4-4.9-2.6-7.6-3.8c-2.7-1.1-5.7-2.1-8.8-3c-3.1-0.9-6.5-1.6-10-2.2
	c-1.3-0.2-2.5-0.4-3.8-0.6h110.7c-1.4,0.3-2.9,0.6-4.2,0.9c-2.7,0.6-5.3,1.4-7.8,2.2c-2.5,0.8-4.9,1.8-7.1,2.8
	c-2.2,1-4.3,2.1-6.3,3.3c-2,1.2-3.8,2.5-5.4,3.8c-1.7,1.4-3.2,2.8-4.6,4.3c-1.4,1.5-2.6,3.1-3.6,4.7c-1,1.6-1.8,3.3-2.5,5
	c-0.7,1.7-1.1,3.5-1.4,5.3c-0.3,1.8-0.4,3.7-0.3,5.5c0,1.1,0.1,2.2,0.3,3.3c0.1,1.1,0.3,2.1,0.6,3.2c0.3,1,0.6,2,0.9,3
	c0.4,1,0.8,1.9,1.2,2.9c0.5,0.9,1,1.9,1.6,2.7c0.6,0.9,1.2,1.8,1.9,2.6c0.7,0.8,1.4,1.7,2.2,2.5c0.8,0.8,1.6,1.6,2.5,2.3
	c1.8,1.5,3.8,2.9,6.1,4.3c2.3,1.4,4.8,2.8,7.5,4.1c2.7,1.3,5.7,2.6,9,3.9c3.2,1.2,6.7,2.5,10.4,3.6l0,0c1.9,0.6,3.6,1.2,5.3,1.7
	c1.6,0.5,3.1,1,4.5,1.5c1.4,0.5,2.6,0.9,3.7,1.3c1.1,0.4,2.1,0.7,2.9,1c0.8,0.3,1.6,0.6,2.3,0.9c0.7,0.3,1.4,0.6,2,0.9
	c0.6,0.3,1.1,0.6,1.6,0.9c0.5,0.3,0.9,0.6,1.3,0.9c0.2,0.1,0.3,0.3,0.5,0.4c0.1,0.1,0.3,0.3,0.4,0.4c0.1,0.1,0.2,0.3,0.3,0.4
	c0.1,0.1,0.2,0.3,0.3,0.5c0.1,0.2,0.2,0.3,0.2,0.5c0.1,0.2,0.1,0.3,0.1,0.5c0,0.2,0.1,0.3,0.1,0.5s0,0.4,0,0.5c0,0.2,0,0.4-0.1,0.6
	c0,0.2-0.1,0.4-0.1,0.5c-0.1,0.2-0.1,0.3-0.2,0.5c-0.1,0.2-0.2,0.3-0.3,0.4c-0.1,0.1-0.2,0.2-0.3,0.3s-0.2,0.2-0.4,0.3
	c-0.1,0.1-0.3,0.2-0.4,0.3c-0.2,0.1-0.3,0.2-0.5,0.3c-0.3,0.1-0.6,0.3-0.9,0.4c-0.3,0.1-0.7,0.2-1.1,0.4c-0.4,0.1-0.8,0.2-1.3,0.3
	c-0.5,0.1-1,0.2-1.5,0.3c-0.5,0.1-1.1,0.2-1.7,0.2c-0.6,0.1-1.2,0.1-1.9,0.2c-0.7,0-1.3,0.1-2.1,0.1c-0.7,0-1.5,0-2.3,0
	c-1.9,0-3.9,0-5.9-0.1c-2-0.1-4-0.2-6.1-0.4c-2.1-0.2-4.2-0.4-6.3-0.8c-2.2-0.3-4.3-0.7-6.6-1.1c-2.2-0.4-4.4-0.9-6.6-1.4
	c-2.2-0.5-4.3-1.1-6.5-1.7c-2.1-0.6-4.2-1.3-6.3-2c-2.1-0.7-4.2-1.5-6.2-2.3c-0.1,0-0.2-0.1-0.2-0.1c-0.1,0-0.2,0-0.3-0.1
	c-0.1,0-0.2,0-0.3,0c-0.1,0-0.2,0-0.3,0c-0.1,0-0.2,0-0.3,0c-0.1,0-0.2,0-0.3,0c-0.1,0-0.2,0-0.3,0.1c-0.1,0-0.2,0.1-0.3,0.1
	c-0.2,0.1-0.3,0.2-0.4,0.3c-0.1,0.1-0.2,0.2-0.3,0.3c-0.1,0.1-0.2,0.2-0.2,0.4c0,0.1-0.1,0.3-0.1,0.4l1,29.6c0,0.1,0,0.3,0.1,0.4
	c0.1,0.1,0.1,0.3,0.2,0.4c0.1,0.1,0.2,0.2,0.4,0.3c0.1,0.1,0.3,0.2,0.5,0.2c1.6,0.6,3.4,1.2,5.2,1.7c1.9,0.5,3.8,1,5.9,1.5
	c2.1,0.5,4.3,0.9,6.6,1.3c2.3,0.4,4.7,0.8,7.2,1.2c2.5,0.4,5,0.7,7.6,0.9c2.5,0.3,5,0.5,7.5,0.7c2.5,0.2,5,0.3,7.5,0.4
	c2.5,0.1,5,0.1,7.5,0.1c2.7,0,5.3,0,7.8-0.1c2.5-0.1,5-0.2,7.3-0.4c2.4-0.2,4.6-0.4,6.9-0.7c2.2-0.3,4.3-0.6,6.4-1
	c2-0.4,4-0.8,5.9-1.3c1.9-0.5,3.7-1,5.4-1.6c1.7-0.6,3.4-1.2,5-1.9c1.6-0.7,3.1-1.4,4.5-2.2c1.4-0.8,2.7-1.6,4-2.4
	c1.3-0.9,2.4-1.8,3.5-2.7c1.1-0.9,2.1-1.9,3-2.9c0.9-1,1.8-2.1,2.5-3.2c0.8-1.1,1.4-2.2,2-3.4c0.6-1.2,1.1-2.4,1.5-3.6
	c0.4-1.3,0.7-2.5,1-3.9c0.2-1.3,0.4-2.7,0.4-4.1c0.1-1.6,0.1-3.1,0-4.6c-0.1-1.5-0.3-2.9-0.6-4.3c-0.3-1.4-0.6-2.7-1.1-3.9
	c-0.5-1.2-1-2.4-1.6-3.5c-0.6-1.1-1.4-2.2-2.2-3.3c-0.9-1.1-1.8-2.1-2.9-3c-1.1-1-2.3-1.9-3.5-2.8c-1.3-0.9-2.7-1.8-4.2-2.6
	c-1.5-0.8-3.1-1.7-4.9-2.5c-1.8-0.8-3.8-1.7-5.9-2.5c-2.1-0.8-4.4-1.7-6.8-2.5c-2.4-0.8-5-1.7-7.7-2.5l-5-1.6h0
	c-1.1-0.3-2.2-0.7-3.3-1c-1-0.3-2-0.6-3-0.9c-1-0.3-1.9-0.6-2.7-0.9c-0.9-0.3-1.7-0.6-2.4-0.8c-0.8-0.3-1.5-0.5-2.2-0.8
	c-0.7-0.2-1.3-0.5-1.9-0.7c-0.6-0.2-1.1-0.4-1.6-0.6c-0.5-0.2-0.9-0.4-1.3-0.6c-0.4-0.2-0.7-0.3-1-0.5c-0.3-0.2-0.6-0.4-0.8-0.5
	c-0.2-0.2-0.5-0.4-0.7-0.5c-0.2-0.2-0.4-0.4-0.5-0.6c-0.2-0.2-0.3-0.4-0.4-0.6c-0.1-0.2-0.2-0.4-0.3-0.6c-0.1-0.2-0.1-0.4-0.2-0.7
	c0-0.2-0.1-0.5-0.1-0.7c0-0.2,0-0.5,0.1-0.7c0-0.2,0.1-0.4,0.2-0.6c0.1-0.2,0.2-0.4,0.3-0.6c0.1-0.2,0.3-0.4,0.4-0.5
	c0.2-0.2,0.4-0.3,0.6-0.5s0.5-0.3,0.7-0.5c0.3-0.2,0.6-0.3,0.9-0.5c0.3-0.2,0.7-0.3,1.1-0.5c0.8-0.3,1.7-0.6,2.7-0.8
	c1-0.2,2.1-0.4,3.2-0.6c1.2-0.2,2.4-0.3,3.7-0.4c1.3-0.1,2.7-0.1,4.2-0.1c3.4,0,6.8,0.2,10.2,0.5c3.4,0.3,6.7,0.9,10.1,1.5
	c3.3,0.7,6.6,1.5,9.9,2.6c3.3,1,6.5,2.2,9.8,3.6c0.1,0,0.2,0.1,0.2,0.1c0.1,0,0.2,0,0.3,0.1c0.1,0,0.2,0,0.3,0c0.1,0,0.2,0,0.3,0
	c0.1,0,0.2,0,0.3,0c0.1,0,0.2,0,0.3,0c0.1,0,0.2,0,0.3-0.1c0.1,0,0.2-0.1,0.3-0.1c0.2-0.1,0.3-0.2,0.5-0.3c0.1-0.1,0.3-0.2,0.4-0.3
	c0.1-0.1,0.2-0.3,0.2-0.4c0.1-0.1,0.1-0.3,0.1-0.4l1.2-31.5c0-0.2,0-0.3-0.1-0.5c-0.1-0.2-0.1-0.3-0.2-0.4c-0.1-0.1-0.2-0.3-0.4-0.4
	c-0.2-0.1-0.3-0.2-0.5-0.3c-1.9-0.7-3.8-1.4-5.8-2c-1.9-0.6-3.9-1.2-5.9-1.7c-2-0.5-4-1-6-1.4c-2-0.4-4.1-0.8-6.1-1.1h46.3
	c0,0.1-0.1,0.1-0.1,0.2c0,0.1-0.1,0.2-0.1,0.4l-6,117.9c0,0.1,0,0.2,0,0.3c0,0.1,0.1,0.2,0.1,0.3c0,0.1,0.1,0.2,0.2,0.3
	c0.1,0.1,0.2,0.2,0.3,0.2c0.1,0.1,0.2,0.1,0.3,0.2c0.1,0.1,0.2,0.1,0.4,0.1c0.1,0,0.3,0.1,0.4,0.1c0.1,0,0.3,0,0.4,0h42.3
	c0.1,0,0.3,0,0.4,0c0.1,0,0.3,0,0.4-0.1c0.1,0,0.3-0.1,0.4-0.1c0.1-0.1,0.2-0.1,0.3-0.2c0.1-0.1,0.2-0.2,0.3-0.2
	c0.1-0.1,0.2-0.2,0.2-0.3c0.1-0.1,0.1-0.2,0.1-0.3c0-0.1,0.1-0.2,0.1-0.3l2.9-35.6h5.8l26.4,36.4c0.1,0.1,0.2,0.2,0.3,0.3
	c0.1,0.1,0.3,0.2,0.4,0.2c0.1,0.1,0.3,0.1,0.5,0.1c0.2,0,0.3,0.1,0.5,0.1h49.3c0.2,0,0.4,0,0.6-0.1c0.2,0,0.4-0.1,0.5-0.2
	c0.2-0.1,0.3-0.2,0.5-0.3c0.1-0.1,0.3-0.2,0.4-0.3c0.1-0.1,0.2-0.3,0.2-0.4c0.1-0.1,0.1-0.3,0.1-0.4c0-0.1,0-0.3-0.1-0.4
	c0-0.1-0.1-0.3-0.2-0.4L438.7,427c2.4-0.8,4.7-1.7,6.8-2.7c2.1-1,4.2-2,6.1-3.2c1.9-1.1,3.7-2.4,5.3-3.6c1.6-1.3,3.2-2.7,4.5-4.1
	c1.5-1.6,2.9-3.2,4-4.9c1.2-1.7,2.2-3.5,3.1-5.4c0.9-1.9,1.6-3.8,2.2-5.8c0.6-2,1-4,1.3-6.2c0.2-1.5,0.3-3,0.3-4.5
	c0-1.5,0-2.9-0.2-4.4c-0.2-1.4-0.4-2.8-0.7-4.2c-0.3-1.4-0.8-2.7-1.3-4c-0.8-2-1.8-3.8-3-5.6c-1.2-1.8-2.7-3.5-4.3-5.1
	c-1.7-1.6-3.6-3.1-5.7-4.5c-2.1-1.4-4.4-2.6-7-3.8c-2.5-1.1-5.3-2.1-8.3-3c-3-0.9-6.2-1.6-9.6-2.2c-1.2-0.2-2.5-0.4-3.7-0.6h39.9
	c6.9,0,13.4-0.9,19.1-2.6c5.7-1.7,10.6-4,14.5-6.9c3.9-2.9,6.8-6.3,8.4-10.1C512,326,512.5,321.9,511.5,317.6z M446.4,272.8
	c0.5,0.1,0.9,0.3,1.3,0.5c0.4,0.2,0.7,0.5,1,0.7c0.2,0.3,0.4,0.6,0.5,0.9l0.9,4.6c0.1,0.3,0,0.6-0.1,0.9c-0.1,0.3-0.4,0.5-0.7,0.7
	c-0.3,0.2-0.7,0.4-1.1,0.5c-0.4,0.1-0.9,0.2-1.5,0.2H94.8c-0.5,0-1-0.1-1.5-0.2c-0.4-0.1-0.8-0.3-1.1-0.5c-0.3-0.2-0.6-0.5-0.7-0.7
	c-0.2-0.3-0.2-0.6-0.2-0.9l0.7-4.6c0-0.3,0.2-0.6,0.4-0.9c0.2-0.3,0.6-0.5,0.9-0.7c0.4-0.2,0.8-0.4,1.3-0.5c0.5-0.1,1-0.2,1.5-0.2
	h348.6C445.4,272.6,445.9,272.7,446.4,272.8z M440.6,241c0.5,0.1,0.9,0.3,1.3,0.5c0.4,0.2,0.7,0.4,0.9,0.7c0.2,0.3,0.4,0.5,0.4,0.8
	l0.8,4.3c0.1,0.3,0,0.6-0.1,0.8c-0.1,0.3-0.4,0.5-0.7,0.7c-0.3,0.2-0.7,0.4-1.1,0.5c-0.4,0.1-0.9,0.2-1.4,0.2H99.8
	c-0.5,0-1-0.1-1.4-0.2c-0.4-0.1-0.8-0.3-1.1-0.5c-0.3-0.2-0.5-0.4-0.7-0.7c-0.1-0.3-0.2-0.5-0.2-0.8l0.7-4.3c0-0.3,0.2-0.6,0.4-0.8
	c0.2-0.3,0.5-0.5,0.9-0.7c0.4-0.2,0.8-0.4,1.3-0.5c0.5-0.1,1-0.2,1.5-0.2h338C439.6,240.9,440.1,240.9,440.6,241z M305.8,76.3
	c0.1-0.2,0.3-0.4,0.6-0.5c0.3-0.1,0.6-0.3,1-0.3c0.4-0.1,0.8-0.1,1.2-0.1l5.9,0c0,0,0,0,0,0s0,0,0,0c0,0,0,0,0,0s0,0,0,0
	c0.4,0,0.7,0,1.1,0.1c0.3,0.1,0.6,0.1,0.9,0.3s0.5,0.2,0.7,0.4c0.2,0.1,0.3,0.3,0.4,0.5c0,0.1,0.1,0.2,0.1,0.4
	c0.1,0.1,0.1,0.3,0.2,0.4s0.1,0.3,0.2,0.4c0.1,0.1,0.2,0.3,0.2,0.5h57.4c0.1-0.2,0.1-0.3,0.1-0.5c0-0.1,0.1-0.3,0.1-0.4
	c0-0.1,0.1-0.3,0.1-0.4c0-0.1,0-0.2,0.1-0.3c0-0.2,0.1-0.3,0.3-0.5c0.1-0.2,0.3-0.3,0.6-0.4c0.2-0.1,0.5-0.2,0.9-0.3
	c0.3-0.1,0.7-0.1,1-0.1l5.9,0c0.4,0,0.9,0,1.2,0.1c0.4,0.1,0.7,0.2,1,0.3c0.3,0.1,0.5,0.3,0.7,0.5c0.2,0.2,0.2,0.4,0.2,0.6
	c-0.1,1.1-0.4,2.6-1.3,4.5c-0.9,1.9-2.4,4-4.9,6.3c-2.5,2.3-5.9,4.7-10.7,7.1c-4.8,2.4-11,4.7-18.9,6.7c-1.5,0.4-2.8,0.8-4.2,1.2
	c-1.3,0.4-2.6,0.8-3.8,1.2c-1.2,0.4-2.3,0.8-3.4,1.3c-1.1,0.4-2.1,0.9-3.1,1.3h24.2c-0.3-0.1-0.6-0.2-0.8-0.3
	c-0.3-0.1-0.5-0.2-0.8-0.3c-0.3-0.1-0.6-0.2-0.8-0.3c-0.3-0.1-0.6-0.2-0.9-0.3c1-0.3,1.9-0.5,2.9-0.8c0.9-0.3,1.8-0.6,2.7-0.8
	c0.9-0.3,1.8-0.6,2.6-0.9c0.8-0.3,1.7-0.6,2.5-0.9c4.7,1.9,8.5,3.8,11.6,5.8c3.2,2,5.7,3.9,7.6,5.7c2,1.8,3.4,3.5,4.4,5
	c1,1.5,1.6,2.8,2,3.7c0.1,0.2,0.1,0.5,0,0.7c-0.1,0.2-0.3,0.4-0.5,0.6c-0.3,0.2-0.6,0.3-1,0.4c-0.4,0.1-0.8,0.1-1.3,0.1l-6.3,0
	c0,0,0,0,0,0c0,0,0,0,0,0c0,0,0,0,0,0c0,0,0,0,0,0c-0.4,0-0.8,0-1.1-0.1c-0.4-0.1-0.7-0.2-1-0.3c-0.3-0.1-0.5-0.3-0.7-0.4
	c-0.2-0.2-0.3-0.4-0.4-0.6c0-0.1-0.1-0.3-0.2-0.4c-0.1-0.1-0.1-0.3-0.2-0.4c-0.1-0.2-0.2-0.3-0.3-0.5s-0.2-0.3-0.3-0.5h-60.3
	c-0.1,0.2-0.1,0.3-0.2,0.5c-0.1,0.2-0.1,0.3-0.1,0.5c0,0.2-0.1,0.3-0.1,0.4c0,0.1-0.1,0.3-0.1,0.4c0,0.2-0.1,0.4-0.3,0.6
	c-0.2,0.2-0.4,0.3-0.7,0.4c-0.3,0.1-0.6,0.2-0.9,0.3c-0.3,0.1-0.7,0.1-1.1,0.1l-6.3,0c-0.5,0-0.9-0.1-1.3-0.1
	c-0.4-0.1-0.8-0.2-1-0.4c-0.3-0.2-0.5-0.4-0.7-0.6c-0.1-0.2-0.2-0.4-0.2-0.7c0.2-1.1,0.6-2.6,1.5-4.3c0.9-1.7,2.3-3.8,4.3-5.9
	c2.1-2.1,4.9-4.3,8.6-6.5c3.7-2.2,8.4-4.4,14.3-6.3c-6.2-2-11.2-4.1-15.3-6.3c-4-2.1-7-4.3-9.3-6.3c-2.3-2-3.8-3.9-4.9-5.5
	c-1.1-1.6-1.6-3-1.9-3.9C305.7,76.6,305.7,76.4,305.8,76.3z M118.1,100.8l0.8-4.9c0.1-0.7,0.5-1.3,1.1-1.9c0.6-0.6,1.4-1.1,2.3-1.5
	c0.9-0.4,2-0.8,3.2-1c1.2-0.2,2.5-0.4,3.8-0.4h23.6l1.4-11.6c0.1-0.6,0.4-1.3,1-1.8c0.5-0.6,1.3-1.1,2.2-1.5c0.9-0.4,2-0.8,3.1-1
	c1.2-0.2,2.4-0.4,3.7-0.4h9.5c1.3,0,2.5,0.1,3.7,0.4c1.1,0.2,2.1,0.6,2.9,1c0.8,0.4,1.5,0.9,1.9,1.5c0.4,0.6,0.6,1.2,0.6,1.8
	l-1,11.6h23.6c1.3,0,2.6,0.1,3.7,0.4c1.1,0.2,2.2,0.6,3,1c0.9,0.4,1.5,1,2,1.5c0.5,0.6,0.7,1.2,0.7,1.9l-0.2,4.9
	c0,0.7-0.3,1.3-0.9,1.9c-0.5,0.6-1.3,1.1-2.2,1.6c-0.9,0.4-2,0.8-3.2,1.1c-1.2,0.3-2.5,0.4-3.8,0.4h-24l-1.1,12.3
	c-0.1,0.7-0.4,1.4-1,2c-0.6,0.6-1.3,1.2-2.3,1.6c-0.9,0.5-2.1,0.8-3.3,1.1c-1.2,0.3-2.6,0.4-3.9,0.4h-10c-1.4,0-2.7-0.1-3.9-0.4
	c-1.2-0.3-2.2-0.6-3.1-1.1c-0.9-0.5-1.5-1-2-1.6c-0.4-0.6-0.6-1.3-0.5-2l1.5-12.3h-24c-1.4,0-2.6-0.1-3.8-0.4
	c-1.1-0.3-2.1-0.6-3-1.1c-0.8-0.4-1.5-1-1.9-1.6C118.1,102.2,118,101.5,118.1,100.8z M114.4,132.7c0-0.2,0.2-0.5,0.4-0.7
	c0.2-0.2,0.5-0.4,0.8-0.5c0.3-0.2,0.7-0.3,1.1-0.4c0.4-0.1,0.8-0.1,1.3-0.1h301.2c0.5,0,0.9,0,1.3,0.1c0.4,0.1,0.8,0.2,1.1,0.4
	c0.3,0.2,0.6,0.3,0.8,0.5c0.2,0.2,0.3,0.4,0.4,0.7l0.6,3.4c0,0.2,0,0.5-0.1,0.7c-0.1,0.2-0.3,0.4-0.6,0.6c-0.3,0.2-0.6,0.3-1,0.4
	c-0.4,0.1-0.8,0.1-1.3,0.1H116.9c-0.5,0-0.9,0-1.3-0.1c-0.4-0.1-0.7-0.2-1-0.4c-0.3-0.2-0.5-0.3-0.6-0.6c-0.1-0.2-0.2-0.4-0.2-0.7
	L114.4,132.7z M110.4,158c0-0.2,0.2-0.5,0.4-0.7c0.2-0.2,0.5-0.4,0.8-0.6c0.3-0.2,0.7-0.3,1.1-0.4c0.4-0.1,0.9-0.1,1.3-0.1h309.6
	c0.5,0,0.9,0.1,1.3,0.1c0.4,0.1,0.8,0.2,1.2,0.4c0.3,0.2,0.6,0.4,0.8,0.6c0.2,0.2,0.4,0.5,0.4,0.7l0.7,3.6c0,0.3,0,0.5-0.1,0.7
	c-0.1,0.2-0.3,0.4-0.6,0.6c-0.3,0.2-0.6,0.3-1,0.4c-0.4,0.1-0.8,0.1-1.3,0.1H113c-0.5,0-0.9-0.1-1.3-0.1c-0.4-0.1-0.7-0.2-1-0.4
	c-0.3-0.2-0.5-0.4-0.6-0.6c-0.1-0.2-0.2-0.5-0.2-0.7L110.4,158z M106.2,184.7c0-0.3,0.2-0.5,0.4-0.7c0.2-0.2,0.5-0.4,0.8-0.6
	c0.3-0.2,0.7-0.3,1.2-0.4c0.4-0.1,0.9-0.2,1.4-0.2h318.5c0.5,0,0.9,0.1,1.4,0.2c0.4,0.1,0.8,0.2,1.2,0.4c0.3,0.2,0.6,0.4,0.9,0.6
	c0.2,0.2,0.4,0.5,0.4,0.7l0.7,3.9c0,0.3,0,0.5-0.1,0.8c-0.1,0.2-0.4,0.4-0.6,0.6c-0.3,0.2-0.6,0.3-1,0.4c-0.4,0.1-0.9,0.2-1.3,0.2
	H108.8c-0.5,0-0.9-0.1-1.3-0.2c-0.4-0.1-0.8-0.2-1.1-0.4c-0.3-0.2-0.5-0.4-0.7-0.6c-0.1-0.2-0.2-0.5-0.2-0.8L106.2,184.7z
	 M105.7,210.9h327.9c0.5,0,1,0.1,1.4,0.2c0.4,0.1,0.9,0.3,1.2,0.4c0.4,0.2,0.7,0.4,0.9,0.6c0.2,0.2,0.4,0.5,0.4,0.8l0.8,4.1
	c0.1,0.3,0,0.6-0.1,0.8c-0.1,0.2-0.4,0.5-0.7,0.7c-0.3,0.2-0.7,0.3-1.1,0.4c-0.4,0.1-0.9,0.2-1.4,0.2H104.4c-0.5,0-1-0.1-1.4-0.2
	c-0.4-0.1-0.8-0.3-1.1-0.4c-0.3-0.2-0.5-0.4-0.7-0.7c-0.1-0.2-0.2-0.5-0.2-0.8l0.6-4.1c0-0.3,0.2-0.5,0.4-0.8
	c0.2-0.2,0.5-0.5,0.9-0.6c0.4-0.2,0.8-0.3,1.2-0.4C104.7,211,105.2,210.9,105.7,210.9z M84,134.4c0.1-0.7,0.5-1.4,1.2-2
	c0.6-0.6,1.4-1.2,2.4-1.6c1-0.5,2.1-0.8,3.4-1.1c1.2-0.3,2.6-0.4,3.9-0.4c1.4,0,2.6,0.1,3.8,0.4c1.1,0.3,2.1,0.6,3,1.1
	c0.8,0.5,1.4,1,1.8,1.6c0.4,0.6,0.6,1.3,0.4,2c-0.1,0.7-0.5,1.4-1.1,2c-0.6,0.6-1.4,1.2-2.4,1.7c-1,0.5-2.1,0.9-3.4,1.1
	c-1.2,0.3-2.6,0.4-4,0.4c-1.4,0-2.7-0.1-3.8-0.4c-1.1-0.3-2.2-0.6-3-1.1c-0.8-0.5-1.4-1-1.8-1.7C84,135.8,83.9,135.2,84,134.4z
	 M79.2,159.8c0.1-0.8,0.6-1.5,1.2-2.1c0.6-0.7,1.5-1.2,2.5-1.7c1-0.5,2.2-0.9,3.5-1.2c1.3-0.3,2.6-0.4,4-0.4c1.4,0,2.7,0.2,3.9,0.4
	c1.2,0.3,2.2,0.7,3,1.2c0.8,0.5,1.5,1.1,1.9,1.7c0.4,0.7,0.6,1.4,0.4,2.1c-0.1,0.8-0.5,1.5-1.2,2.1c-0.6,0.7-1.5,1.2-2.5,1.7
	c-1,0.5-2.2,0.9-3.5,1.2c-1.3,0.3-2.7,0.4-4.1,0.4c-1.4,0-2.8-0.2-3.9-0.4c-1.2-0.3-2.2-0.7-3-1.2c-0.8-0.5-1.5-1.1-1.9-1.7
	C79.2,161.3,79,160.5,79.2,159.8z M74.1,186.6c0.2-0.8,0.6-1.6,1.3-2.3c0.7-0.7,1.5-1.3,2.6-1.8c1-0.5,2.2-0.9,3.6-1.2
	c1.3-0.3,2.7-0.4,4.2-0.4c1.4,0,2.8,0.2,4,0.4c1.2,0.3,2.3,0.7,3.1,1.2c0.9,0.5,1.5,1.1,1.9,1.8c0.4,0.7,0.6,1.4,0.4,2.3
	c-0.1,0.8-0.6,1.6-1.2,2.3c-0.7,0.7-1.5,1.3-2.6,1.9c-1,0.5-2.3,1-3.6,1.2c-1.3,0.3-2.7,0.5-4.2,0.5c-1.5,0-2.8-0.2-4-0.5
	c-1.2-0.3-2.3-0.7-3.1-1.2c-0.9-0.5-1.5-1.2-1.9-1.9C74.1,188.2,73.9,187.4,74.1,186.6z M68.7,215c0.2-0.8,0.6-1.7,1.3-2.4
	c0.7-0.7,1.6-1.4,2.7-1.9c1.1-0.5,2.3-1,3.7-1.3c1.3-0.3,2.8-0.5,4.3-0.5c1.5,0,2.9,0.2,4.1,0.5c1.2,0.3,2.3,0.7,3.2,1.3
	c0.9,0.6,1.6,1.2,2,1.9c0.4,0.7,0.6,1.5,0.4,2.4c-0.1,0.9-0.6,1.7-1.3,2.4c-0.7,0.7-1.6,1.4-2.7,2c-1.1,0.6-2.3,1-3.7,1.3
	c-1.4,0.3-2.8,0.5-4.3,0.5c-1.5,0-2.9-0.2-4.2-0.5c-1.2-0.3-2.3-0.8-3.2-1.3c-0.9-0.6-1.5-1.2-2-2C68.6,216.7,68.5,215.9,68.7,215z
	 M74.1,311.4c-0.2,1-0.7,2-1.4,2.9c-0.8,0.9-1.8,1.7-3,2.4c-1.2,0.7-2.6,1.2-4.1,1.6c-1.5,0.4-3.1,0.6-4.8,0.6
	c-1.7,0-3.2-0.2-4.6-0.6c-1.4-0.4-2.6-0.9-3.5-1.6c-1-0.7-1.7-1.5-2.1-2.4c-0.4-0.9-0.6-1.9-0.4-2.9c0.2-1,0.7-2,1.5-2.9
	c0.8-0.9,1.8-1.7,3-2.3c1.2-0.7,2.6-1.2,4.1-1.6c1.5-0.4,3.1-0.6,4.7-0.6c1.6,0,3.2,0.2,4.5,0.6c1.4,0.4,2.5,0.9,3.5,1.6
	c1,0.7,1.7,1.5,2.1,2.3C74.1,309.4,74.3,310.4,74.1,311.4z M79.9,277.2c-0.2,1-0.6,1.9-1.4,2.7c-0.7,0.8-1.7,1.6-2.9,2.2
	c-1.2,0.6-2.5,1.1-3.9,1.5c-1.5,0.4-3,0.5-4.6,0.5c-1.6,0-3.1-0.2-4.4-0.5c-1.3-0.4-2.5-0.9-3.4-1.5c-0.9-0.6-1.6-1.4-2.1-2.2
	c-0.4-0.8-0.6-1.8-0.4-2.7c0.2-1,0.7-1.9,1.4-2.7c0.7-0.8,1.7-1.6,2.9-2.2c1.2-0.6,2.5-1.1,3.9-1.5c1.4-0.3,3-0.5,4.6-0.5
	c1.6,0,3.1,0.2,4.4,0.5c1.3,0.3,2.5,0.8,3.4,1.5c0.9,0.6,1.6,1.4,2.1,2.2C79.9,275.4,80,276.3,79.9,277.2z M85.3,245.2
	c-0.2,0.9-0.6,1.8-1.3,2.6c-0.7,0.8-1.6,1.5-2.8,2.1c-1.1,0.6-2.4,1.1-3.8,1.4c-1.4,0.3-2.9,0.5-4.5,0.5c-1.6,0-3-0.2-4.3-0.5
	c-1.3-0.3-2.4-0.8-3.3-1.4c-0.9-0.6-1.6-1.3-2-2.1c-0.4-0.8-0.6-1.6-0.4-2.6c0.2-0.9,0.6-1.8,1.4-2.5c0.7-0.8,1.7-1.5,2.8-2.1
	c1.1-0.6,2.4-1.1,3.8-1.4c1.4-0.3,2.9-0.5,4.4-0.5c1.5,0,3,0.2,4.2,0.5c1.3,0.3,2.4,0.8,3.3,1.4c0.9,0.6,1.6,1.3,2,2.1
	C85.2,243.4,85.4,244.3,85.3,245.2z M134.7,391.2c0.1,0.4,0.2,0.9,0.2,1.4c0,0.5,0,1,0,1.4c0,0.5-0.1,0.9-0.2,1.3
	c-0.1,0.4-0.2,0.8-0.3,1.2c-0.1,0.4-0.3,0.8-0.5,1.1c-0.3,0.5-0.6,1-1,1.5c-0.4,0.5-0.8,0.9-1.3,1.3c-0.5,0.4-1,0.8-1.7,1.1
	c-0.6,0.3-1.3,0.7-2,1c-0.7,0.3-1.5,0.6-2.4,0.8c-0.9,0.2-1.8,0.4-2.8,0.6c-1,0.2-2,0.3-3.2,0.4c-1.1,0.1-2.3,0.1-3.5,0.1h-12.6
	l-2.2-23.6h12.7c0,0,0,0,0,0c0,0,0,0,0,0c0,0,0,0,0,0c0,0,0,0,0,0c1.7,0,3.2,0.1,4.7,0.2c1.5,0.1,2.8,0.4,4.1,0.6
	c1.3,0.3,2.4,0.6,3.5,1c1.1,0.4,2,0.8,2.8,1.3c0.4,0.3,0.8,0.5,1.2,0.8c0.4,0.3,0.7,0.6,1.1,0.9c0.3,0.3,0.6,0.6,0.9,0.9
	c0.3,0.3,0.5,0.7,0.8,1c0.2,0.4,0.4,0.7,0.6,1.1c0.2,0.4,0.3,0.8,0.5,1.2C134.5,390.3,134.6,390.8,134.7,391.2z M421.3,392.6
	c0,0.5-0.1,1-0.2,1.4s-0.2,0.9-0.4,1.3c-0.2,0.4-0.3,0.8-0.5,1.2c-0.2,0.4-0.4,0.8-0.7,1.1c-0.4,0.5-0.8,1-1.2,1.5
	c-0.5,0.5-1,0.9-1.5,1.3c-0.6,0.4-1.2,0.8-1.9,1.1c-0.7,0.3-1.4,0.7-2.2,1c-0.8,0.3-1.6,0.6-2.5,0.8c-0.9,0.2-1.9,0.4-2.9,0.6
	c-1,0.2-2.1,0.3-3.2,0.4c-1.1,0.1-2.3,0.1-3.5,0.1h-12.6l1.9-23.6h12.7c0,0,0,0,0,0c0,0,0,0,0,0c0,0,0,0,0,0c0,0,0,0,0,0
	c1.7,0,3.2,0.1,4.7,0.2c1.4,0.1,2.8,0.4,4,0.6c1.2,0.3,2.3,0.6,3.3,1c1,0.4,1.9,0.8,2.6,1.3c0.4,0.3,0.7,0.5,1.1,0.8
	c0.3,0.3,0.6,0.6,0.9,0.9c0.3,0.3,0.5,0.6,0.7,0.9c0.2,0.3,0.4,0.7,0.6,1c0.2,0.4,0.3,0.7,0.4,1.1c0.1,0.4,0.2,0.8,0.3,1.2
	c0.1,0.4,0.1,0.8,0.1,1.3C421.3,391.7,421.3,392.1,421.3,392.6z M456.2,314.9c-0.1,0.3-0.4,0.6-0.7,0.8c-0.3,0.2-0.7,0.4-1.2,0.5
	c-0.5,0.1-1,0.2-1.5,0.2H89.5c-0.5,0-1.1-0.1-1.5-0.2c-0.5-0.1-0.9-0.3-1.2-0.5c-0.3-0.2-0.6-0.5-0.7-0.8c-0.2-0.3-0.2-0.6-0.2-1
	l0.8-4.9c0.1-0.3,0.2-0.7,0.5-0.9c0.2-0.3,0.6-0.6,1-0.8c0.4-0.2,0.8-0.4,1.3-0.5c0.5-0.1,1-0.2,1.6-0.2h360c0.5,0,1.1,0.1,1.6,0.2
	c0.5,0.1,1,0.3,1.4,0.5c0.4,0.2,0.7,0.5,1,0.8c0.3,0.3,0.4,0.6,0.5,0.9l0.9,4.9C456.4,314.2,456.3,314.6,456.2,314.9z M336.4,91.3
	h24c-0.8,0.4-1.6,0.7-2.5,1.1c-0.9,0.3-1.8,0.7-2.7,1c-1,0.3-2,0.7-3,1c-1.1,0.3-2.1,0.7-3.3,1c-1.2-0.3-2.4-0.6-3.5-1
	c-1.1-0.3-2.2-0.7-3.2-1c-1-0.3-2-0.7-3-1C338.2,92,337.3,91.6,336.4,91.3z"/>
</svg>
