<?xml version="1.0" encoding="utf-8"?>
<svg version="1.1" id="Layer_1" xmlns="http://www.w3.org/2000/svg" xmlns:xlink="http://www.w3.org/1999/xlink" x="0px" y="0px"
	 viewBox="0 0 512 512" style="enable-background:new 0 0 512 512;" xml:space="preserve">
<style type="text/css">
	.st0{fill:none;}
</style>
<rect id="_x3C_512x512Square_x3E_" class="st0" width="512" height="512"/>
<path id="_x3C_CompoundPath_x3E_" d="M512,70.4V32.7H316.5v7.4c0,10.8-8.8,19.6-19.6,19.6h-81.8c-10.8,0-19.6-8.8-19.6-19.6v-7.4H0
	v37.7l49.1,8.2v354.7L0,441.6v37.7h195.5v-5.6c0-10.8,8.8-19.6,19.6-19.6h81.8c10.8,0,19.6,8.8,19.6,19.6v5.6H512v-37.7l-49.1-8.2
	V78.6L512,70.4z M363.9,209.8c0.1,8.8-7,15.9-15.8,16c-8.8,0.1-15.9-7-16-15.8c-0.1-8.8,7-15.9,15.8-16
	C356.7,193.9,363.8,201,363.9,209.8z M335.3,66.3c6.1,0,11,4.9,11.1,10.9c0,6.1-4.9,11-10.9,11.1c-6.1,0-11-4.9-11.1-10.9
	C324.3,71.3,329.2,66.3,335.3,66.3z M340,106.9c8.8-0.1,15.9,7,16,15.8c0.1,8.8-7,15.9-15.8,16c-8.8,0.1-15.9-7-16-15.8
	C324.1,114.1,331.2,106.9,340,106.9z M245.7,126.6c7.6,0,13.8,6.1,13.8,13.7c0,7.6-6.1,13.8-13.7,13.8c-7.6,0-13.8-6.1-13.8-13.7
	C231.9,132.8,238.1,126.6,245.7,126.6z M176,252.3c-0.1-11.9,9.5-21.7,21.5-21.7c11.9-0.1,21.7,9.5,21.7,21.5
	c0.1,11.9-9.5,21.7-21.5,21.7S176.1,264.3,176,252.3z M189.1,302c0.1,8.8-7,15.9-15.8,16c-8.8,0.1-15.9-7-16-15.8
	c-0.1-8.8,7-15.9,15.8-16C181.8,286.2,189,293.2,189.1,302z M201.1,96c8.2,0,14.9,6.6,15,14.8s-6.6,14.9-14.8,15
	c-8.2,0-14.9-6.6-15-14.8C186.2,102.7,192.9,96,201.1,96z M149.6,65.5c-0.1-9.6,7.7-17.4,17.3-17.5c9.6-0.1,17.4,7.7,17.5,17.3
	c0.1,9.6-7.7,17.4-17.3,17.5C157.4,82.9,149.6,75.1,149.6,65.5z M156.3,389.3c-0.1-8.8,7-15.9,15.8-16c8.8-0.1,15.9,7,16,15.8
	c0.1,8.8-7,15.9-15.8,16C163.5,405.2,156.4,398.1,156.3,389.3z M181.4,445.7c-6.1,0-11-4.9-11.1-10.9c0-6.1,4.9-11,10.9-11.1
	c6.1,0,11,4.9,11.1,10.9C192.4,440.7,187.5,445.7,181.4,445.7z M207.3,365.2c-11.2,0.1-20.4-9-20.5-20.2s9-20.4,20.2-20.4
	c11.2-0.1,20.4,9,20.4,20.2C227.6,356,218.5,365.2,207.3,365.2z M255.9,184.2c15.4-0.1,28,12.3,28.1,27.8
	c0.1,15.4-12.3,28-27.8,28.1c-15.4,0.1-28-12.3-28.1-27.8S240.5,184.3,255.9,184.2z M271,385.4c-7.6,0-13.8-6.1-13.8-13.7
	c0-7.6,6.1-13.8,13.7-13.8c7.6,0,13.8,6.1,13.9,13.7C284.8,379.2,278.6,385.4,271,385.4z M260.8,327.8c-15.4,0.1-28-12.3-28.1-27.8
	c-0.1-15.4,12.3-28,27.8-28.1c15.4-0.1,28,12.3,28.1,27.8C288.7,315.1,276.2,327.7,260.8,327.8z M289.2,167.2
	c-0.1-11.2,9-20.4,20.2-20.5s20.4,9,20.5,20.2c0.1,11.2-9,20.4-20.2,20.5C298.4,187.5,289.3,178.4,289.2,167.2z M319,238.2
	c11.9-0.1,21.7,9.5,21.7,21.5c0.1,11.9-9.5,21.7-21.5,21.7c-11.9,0.1-21.7-9.5-21.7-21.5C297.4,248,307.1,238.3,319,238.2z
	 M315.6,416c-8.2,0-14.9-6.6-15-14.8c0-8.2,6.6-14.9,14.8-15c8.2,0,14.9,6.6,15,14.8C330.5,409.3,323.9,416,315.6,416z M349.9,463.9
	c-9.6,0.1-17.4-7.7-17.5-17.3c-0.1-9.6,7.7-17.4,17.3-17.5c9.6-0.1,17.4,7.7,17.5,17.3S359.5,463.9,349.9,463.9z"/>
</svg>
