<?xml version="1.0" encoding="utf-8"?>
<svg version="1.1" id="Layer_4" xmlns="http://www.w3.org/2000/svg" xmlns:xlink="http://www.w3.org/1999/xlink" x="0px" y="0px"
	 viewBox="0 0 512 512" style="enable-background:new 0 0 512 512;" xml:space="preserve">
<style type="text/css">
	.st0{fill:none;}
</style>
<g>
	<rect id="_x3C_512x512square_x3E__00000102525959146849568860000015435613232510988704_" class="st0" width="512" height="512"/>
	<path id="_x3C_CompoundPath_x3E__00000183220731150735199630000009414440977749036732_" d="M475.4,54.9v402.3
		c0,30.3-24.6,54.9-54.9,54.9H91.4c-30.3,0-54.9-24.6-54.9-54.9V54.9C36.6,24.6,61.1,0,91.4,0h329.1C450.9,0,475.4,24.6,475.4,54.9z
		 M384.1,395c0-36.4-34.4-65.8-76.8-65.8h-5.7c-14,5.9-29.5,9.1-45.6,9.1s-31.5-3.2-45.5-9.1h-5.7c-42.4,0-76.8,29.5-76.8,65.8v21.9
		c0,12.1,11.4,21.9,25.6,21.9h204.8c14.2,0,25.6-9.8,25.6-21.9L384.1,395z M182.9,219.4c0,40.4,32.8,73.1,73.1,73.1
		s73.1-32.8,73.1-73.1s-32.8-73.1-73.1-73.1S182.9,179.1,182.9,219.4z"/>
</g>
</svg>
