<?xml version="1.0" encoding="utf-8"?>
<svg version="1.1" id="Layer_1" xmlns="http://www.w3.org/2000/svg" xmlns:xlink="http://www.w3.org/1999/xlink" x="0px" y="0px"
	 viewBox="0 0 512 512" style="enable-background:new 0 0 512 512;" xml:space="preserve">
<path d="M111.9,218.1L51,313l-12.9-8.3c-7.1-4.6-9.2-14.1-4.6-21.2l44.3-69c4.6-7.1,14.1-9.2,21.2-4.6L111.9,218.1z M171.4,372
	l44.3-69c4.6-7.1,2.5-16.7-4.6-21.2l-12.9-8.3l-60.9,94.8l12.9,8.3C157.3,381.2,166.8,379.1,171.4,372z M217.9,377.2
	c-3.4,8.6-8.5,16.4-15.2,22.9l-53.4,53.5c-13.3,13.3-13.3,35,0,48.3s34.9,13.3,48.2,0l63.4-63.4c6.5-6.5,11.6-14.3,15.2-22.9
	l14.4-36.1c-59-64.4-41.3-44.6-50.6-57.3L217.9,377.2z M385.2,102.5c28.3,0,51.2-22.9,51.2-51.2S413.5,0,385.2,0S334,22.9,334,51.2
	S357,102.5,385.2,102.5z M477.5,273c-8.4,16.9-28.7,23.7-45.4,15.3l-24.9-12.6c-16-8.1-28.2-22.3-33.8-39.5l-5.9-17.6l-18.4,73.3
	l48.6,53c7.7,8.3,13.1,18.6,15.9,29.6l23.7,95c4.6,18.3-6.6,36.8-24.9,41.4c-18.2,4.6-36.8-6.6-41.4-24.9l-19.5-78.2
	c-2.8-11-8.2-21.1-15.9-29.6l-63.9-69.8c-15.5-17-21.5-40.6-15.9-62.8l16.2-64.8l-28.6,11.5c-7.7,3.1-13.9,9-17.6,16.4l-7.2,14.5
	c-4.2,8.5-11.5,14.4-19.8,17.2c2,4.6,1.8,10-1.1,14.5l-69.2,107.8l-69-44.3l69.2-107.8c4.6-7.1,14.1-9.2,21.2-4.6l4.6,2.9
	c-0.2-5.4,1-11,3.6-16.2l7.2-14.5c11.1-22.4,30-40,53-49.3c39.9-16.1,61.2-27,99.6-26.9c8.3,0,16.5,1,24.4,2.8l4.8,26.1l-77.8,81.2
	l7.3,27.4l28-4.5L347.1,131l20.2-17.2c27.6,13.7,49.6,38.5,59.7,69.3l10.4,31.4l24.9,12.6C479,235.5,485.7,256.2,477.5,273z
	 M177.8,248.2l-34.5-22.1l-5.5,8.6l34.5,22.1L177.8,248.2z"/>
</svg>
