<?xml version="1.0" encoding="utf-8"?>
<svg version="1.1" id="Layer_1" xmlns="http://www.w3.org/2000/svg" xmlns:xlink="http://www.w3.org/1999/xlink" x="0px" y="0px"
	 viewBox="0 0 512 512" style="enable-background:new 0 0 512 512;" xml:space="preserve">
<path d="M457.1,0H54.9C24.6,0,0,24.6,0,54.9v402.3C0,487.4,24.6,512,54.9,512h402.3c30.3,0,54.9-24.6,54.9-54.9V54.9
	C512,24.6,487.4,0,457.1,0z M451,386.5c0,6.7-5.5,12.2-12.2,12.2H203.5c-7.2,17.9-24.7,30.5-45.2,30.5s-37.9-12.6-45.2-30.5h-40
	c-6.7,0-12.2-5.5-12.2-12.2v-12.2c0-6.7,5.5-12.2,12.2-12.2h40c7.2-17.9,24.7-30.5,45.2-30.5s37.9,12.6,45.2,30.5h235.4
	c6.7,0,12.2,5.5,12.2,12.2V386.5z M451,264.6c0,6.7-5.5,12.2-12.2,12.2h-40.8c-7.2,17.9-24.7,30.5-45.2,30.5
	c-20.4,0-37.9-12.6-45.1-30.5H73.1c-6.7,0-12.2-5.5-12.2-12.2v-12.2c0-6.7,5.5-12.2,12.2-12.2h234.6c7.2-17.9,24.7-30.5,45.1-30.5
	c20.5,0,37.9,12.6,45.2,30.5h40.8c6.7,0,12.2,5.5,12.2,12.2V264.6z M451,142.7c0,6.7-5.5,12.2-12.2,12.2H301.1
	c-7.2,17.9-24.7,30.5-45.1,30.5s-37.9-12.6-45.1-30.5H73.1c-6.7,0-12.2-5.5-12.2-12.2v-12.2c0-6.7,5.5-12.2,12.2-12.2h137.7
	c7.2-17.9,24.7-30.5,45.1-30.5s37.9,12.6,45.1,30.5h137.7c6.7,0,12.2,5.5,12.2,12.2V142.7z"/>
</svg>
