<svg version="1.1" id="Layer_1" xmlns="http://www.w3.org/2000/svg" xmlns:xlink="http://www.w3.org/1999/xlink" x="0px" y="0px"
	 viewBox="0 0 512 512" style="enable-background:new 0 0 512 512;" xml:space="preserve">
<path d="M404.84,475.57c-1.3,20.48-18.29,36.43-38.77,36.43H167.1c-20.48,0-37.48-15.95-38.77-36.43l-17.16-274.41H422
	L404.84,475.57z M279.93,179.51l22.93-12.64l-4.6-28.8l-26.49,10.7L279.93,179.51z M353.91,137.42l-38.47,2.74l17.55,26.16
	l27.91-7.48L353.91,137.42z M407.83,131.25l-28.38,6.28l11.24,34.95l17.13-14.53V131.25z M379.64,119.02l-18.36-39.51l-23.18,28.07
	l20.77,11.44H379.64z M164.46,72.76l84.4-48.73c8.48-4.9,19.02-4.62,27.21,0.83l10.84,7.11l49.35-28.49
	c12.41-7.16,28.22-2.93,35.38,9.48s2.93,28.22-9.48,35.38l-233.3,134.7c-12.41,7.16-28.22,2.93-35.38-9.48s-2.93-28.22,9.48-35.38
	l49.35-28.49l-0.74-12.94C150.95,86.92,155.98,77.66,164.46,72.76z"/>
</svg>
