<?xml version="1.0" encoding="utf-8"?>
<svg version="1.1" id="Layer_3" xmlns="http://www.w3.org/2000/svg" xmlns:xlink="http://www.w3.org/1999/xlink" x="0px" y="0px"
	 viewBox="0 0 512 512" style="enable-background:new 0 0 512 512;" xml:space="preserve">
<g>
	<g>
		<path d="M394.9,256.6c-3.4-12.5,9.7-36.3-3.7-39.3c-7.7-1.7-14.1,3.2-20.7,7.7c-1.2-1.8-3.1-3-5.4-3c-3.6,0-6.5,2.9-6.5,6.5
			c0,0.9,0.2,1.8,0.5,2.6c-1.4,0.4-2.9,0.7-4.4,0.7c-13.5,0.3-17.4-20.2-30.4-10.2c-7.3,5.6-8.1,19.6-6,31.4
			c1.7,9.2-29.4,5.8-27.4,19.6c2,13.8,18,14.6,22.1,24.6c4.1,10-12.4,27.3-3.5,37.3c8.8,9.8,19.3-9.9,33.8-5
			c5.4,1.8,12.1,15.4,20,17c5.2,1,5.5-17.4,13.5-19.2c7.5-1.6,21.9,3.9,24.9,1.7c11.5-8.6-8.6-18.2-1-30.2
			c7.6-11.9,19.7-9.9,19.7-21.5C420.4,260,398.3,269.1,394.9,256.6z M342.2,308.7c-8,0-14.5-7.2-14.5-16.2c0-8.9,6.5-16.2,14.5-16.2
			s14.5,7.2,14.5,16.2C356.8,301.5,350.3,308.7,342.2,308.7z M383.7,280.6c-4,0-7.3-3.6-7.3-8.1s3.3-8.1,7.3-8.1
			c4,0,7.3,3.6,7.3,8.1S387.7,280.6,383.7,280.6z M349.6,265.3c-5.3,0-9.5-2.4-9.5-6.2c0-4.5,4.3-9.1,9.5-9.1c5.3,0,9.5,4.1,9.5,9.1
			C359.1,263.5,354.8,265.3,349.6,265.3z M246.6,425.4c0,56.6-29.2,86.6-65.3,86.6c-28.8,0-52.9-20.7-61.6-49.2
			c-3.5,0.7-7.2,1.2-10.9,1.2c-36.1,0-65.3-32.2-65.3-72c0-4.8,0.5-9.5,1.3-14.1C18.5,365.9,0,337.3,0,304
			c0-29.7,14.8-55.3,36.5-69.1C31.9,224.3,29,212.6,29,200c0-33.4,18.6-62,45.1-74c-1-4.5-1.5-9.2-1.5-14c0-35.3,26-64,58-64
			c0.7,0,1.3,0.2,2,0.2C139,20.5,161.5,0,188.6,0c32,0,58,19.3,58,78.6V425.4z M467.2,377.9c0.8,4.6,1.3,9.3,1.3,14.1
			c0,39.8-29.2,72-65.3,72c-3.7,0-7.3-0.5-10.9-1.2c-8.7,28.5-32.8,49.2-61.6,49.2c-36.1,0-65.3-27.6-65.3-86.6V78.6
			c0-59.8,26-78.6,58-78.6c27.1,0,49.6,20.5,56,48.2c0.6,0,1.3-0.2,2-0.2c32,0,58,28.7,58,64c0,4.8-0.6,9.5-1.5,14
			c26.5,12,45.1,40.6,45.1,74c0,12.6-2.8,24.3-7.5,34.9c21.8,13.8,36.5,39.4,36.5,69.1C512,337.3,493.5,365.9,467.2,377.9z"/>
	</g>
</g>
</svg>
