{
  "className": "hci.ri.core.subject.model.Gender",
  "fields": [{
    "id": false,
    "field": "serialVersionUID",
    "type": "long",
    "notNull": false,
    "min": null,
    "max": null,
    "dictionaryClassName": null,
    "phi": false
  }, {
    "id": true,
    "field": "idGender",
    "type": "Long",
    "notNull": false,
    "min": null,
    "max": null,
    "dictionaryClassName": null,
    "phi": false
  }, {
    "id": false,
    "field": "idGenderType",
    "type": "Long",
    "notNull": true,
    "min": null,
    "max": null,
    "dictionaryClassName": "hci.ri.core.subject.model.GenderType",
    "phi": false
  }, {
    "id": false,
    "field": "startDate",
    "type": "Date",
    "notNull": false,
    "min": null,
    "max": null,
    "dictionaryClassName": null,
    "phi": true
  }, {
    "id": false,
    "field": "idSubject",
    "type": "Long",
    "notNull": true,
    "min": null,
    "max": null,
    "dictionaryClassName": null,
    "phi": false
  }, {
    "id": false,
    "field": "idSystemSource",
    "type": "Long",
    "notNull": true,
    "min": null,
    "max": null,
    "dictionaryClassName": null,
    "phi": false
  }, {
    "id": false,
    "field": "idRecordSource",
    "type": "Long",
    "notNull": true,
    "min": null,
    "max": null,
    "dictionaryClassName": null,
    "phi": false
  }, {
    "id": false,
    "field": "idStudy",
    "type": "Long",
    "notNull": false,
    "min": null,
    "max": null,
    "dictionaryClassName": null,
    "phi": false
  }, {
    "id": false,
    "field": "track",
    "type": "Track",
    "notNull": false,
    "min": null,
    "max": null,
    "dictionaryClassName": null,
    "phi": false
  }
  ]
}
