[
  {
    "idWidgetAttribute": 1,
    "name": "cardClass",
    "display": "Width",
    "dataType": "choice",
    "multiValue": false,
    "userEditable": true,
    "sortOrder": 0,
    "defaultValue": "one-third",
    "widgetAttributeChoices": [
      {
        "idWidgetAttributeChoice": 1,
        "value": "one-third",
        "display": "One Third"
      },
      {
        "idWidgetAttributeChoice": 2,
        "value": "half",
        "display": "Half"
      },
      {
        "idWidgetAttributeChoice": 3,
        "value": "two-third",
        "display": "Two Thirds"
      },
      {
        "idWidgetAttributeChoice": 4,
        "value": "full",
        "display": "Full"
      }
    ]
  }
]
