[
  {
    "idDashboard": 1,
    "idUserProfile": 1,
    "widgetInstances": [
      {
        "idWidgetInstance": 1,
        "widget": {
          "idWidget": 3
        },
        "sortOrder": 1
      },
      {
        "idWidgetInstance": 2,
        "widget": {
          "idWidget": 1
        },
        "sortOrder": 2,
        "attributeValueSet": {
          "idWidgetAttributeValueSet": 20,
          "attributeValues": [
            {
              "idWidgetAttributeValue": 2000,
              "idWidgetAttributeValueSet": 2,
              "idWidgetAttribute": 11,
              "valueString": "BarChartWidget"
            },
            {
              "idWidgetAttributeValue": 2001,
              "idWidgetAttributeValueSet": 2,
              "idWidgetAttribute": 12,
              "valueString": "Melanoma"
            }
          ]
        }
      }
    ]
  }
]
