[
  {
    "idDashboard": 1,
    "idUserProfile": 1,
    "widgetInstances": [
      {
        "idWidgetInstance": 1,
        "widget": {
          "idWidget": 12
        },
        "sortOrder": 1,
        "attributeValueSet": null
      }
    ]
  },
  {
    "idDashboard": 2,
    "idUserProfile": 1,
    "widgetInstances": [
      {
        "idWidgetInstance": 2,
        "widget": {
          "idWidget": 12
        },
        "sortOrder": 1,
        "attributeValueSet": null
      }
    ]
  }
]
