[
  {
    "codeGroupType": "DOT",
    "groupType": "Disease Oriented Research Team",
    "isActive": "Y"
  },
  {
    "codeGroupType": "MDG",
    "groupType": "Multidisciplinary Disease Group",
    "isActive": "Y"
  },
  {
    "codeGroupType": "OTH",
    "groupType": "Other",
    "isActive": "Y"
  },
  {
    "codeGroupType": "PROG",
    "groupType": "CCSG Program",
    "isActive": "Y"
  },
  {
    "codeGroupType": "STATUS",
    "groupType": "CCSG Member Status",
    "isActive": "Y"
  }
]
