[
  {
    "idProgram": 1,
    "programName": "Cancer Control & Population Sciences",
    "programCode": "CCPS",
    "isActive": "Y",
    "isNPA": "N"
  },
  {
    "idProgram": 2,
    "programName": "Cell Response & Regulation",
    "programCode": "CRR",
    "isActive": "Y",
    "isNPA": "N"
  },
  {
    "idProgram": 6,
    "programName": "Nuclear Control of Cell Growth & Differentiation",
    "programCode": "NC",
    "isActive": "Y",
    "isNPA": "N"
  },
  {
    "idProgram": 10,
    "programName": "ExperimentalTherapeutics",
    "programCode": "ET",
    "isActive": "Y",
    "isNPA": "N"
  },
  {
    "idProgram": 16,
    "programName": "Non-Program Aligned",
    "programCode": "NPA",
    "isActive": "Y",
    "isNPA": "Y"
  },
  {
    "idProgram": 67,
    "programName": "Gastrointestinal Cancers",
    "programCode": "GIC",
    "isActive": "Y",
    "isNPA": "N"
  }
]
